<svg width="66" height="74" viewBox="0 0 66 74" fill="none" xmlns="http://www.w3.org/2000/svg">
<path d="M4.48701 8.69564C4.00383 8.69564 4.07371 9.20217 3.79162 9.25195C3.58217 9.28891 3.25806 9.72134 3.12713 9.83917C2.7278 10.1986 2.29032 10.9631 2.26176 11.4772C2.24434 11.7907 1.9836 12.008 1.9836 12.3117C1.9836 12.6981 2.03227 13.0714 1.87543 13.4243C1.62126 13.9962 1.84452 15.1557 1.84452 15.7886C1.84452 19.3655 2.26176 22.8806 2.26176 26.4281C2.26176 30.8795 2.53991 35.2383 2.53991 39.6792C2.53991 40.3947 2.26176 40.9726 2.26176 41.6881C2.26176 43.3382 1.75075 44.8938 1.70544 46.525C1.67162 47.7426 1.19489 48.9203 1.14913 50.1101C1.09758 51.4505 1.09863 52.7784 1.01778 54.1125C0.938686 55.4175 1.14913 56.7165 1.14913 57.9912C1.14913 58.7838 1.09043 59.8234 1.35775 60.5719C1.70082 61.5325 1.84452 62.5471 1.84452 63.5621C1.84452 64.1158 1.84452 64.6696 1.84452 65.2233C1.84452 65.5175 2.12268 65.7257 2.12268 66.0732C2.12268 66.8153 2.33546 68.0633 2.74081 68.7003C2.94553 69.022 2.75147 69.669 3.03442 69.952C3.29554 70.2131 3.3336 70.4717 3.51346 70.7864C3.8027 71.2926 4.78555 71.448 5.04333 71.8991C5.223 72.2135 6.93644 72.2545 7.26858 72.2545C11.5594 72.2545 15.83 72.3936 20.1256 72.3936C22.6342 72.3936 25.1427 72.3936 27.6513 72.3936C31.005 72.3936 34.3299 72.1154 37.665 72.1154C43.6133 72.1154 49.5557 72.2545 55.4979 72.2545C56.8773 72.2545 58.2223 72.1154 59.593 72.1154C60.2317 72.1154 60.8705 72.1154 61.5092 72.1154C61.9726 72.1154 61.7702 71.7637 62.0655 71.59C62.3597 71.417 62.878 70.1466 62.9 69.7511C62.9158 69.4653 63.126 68.9926 63.3172 68.7775C63.5673 68.4961 63.6198 67.8633 63.7962 67.5104C64.6627 65.7775 64.0126 63.2686 64.0126 61.4064C64.0126 60.3966 63.9644 59.4519 63.6649 58.4935C63.4382 57.768 63.5954 56.7651 63.5954 56.0132C63.5954 54.9742 63.6789 53.9217 63.7344 52.9226C63.8022 51.7035 64.0126 50.5319 64.0126 49.3065C64.0126 46.8984 64.0126 44.4903 64.0126 42.0822C64.0126 40.0166 64.0126 37.951 64.0126 35.8855C64.0126 33.9237 64.5689 32.1171 64.5689 30.1833C64.5689 29.0995 64.897 27.9751 64.9784 26.8763C65.022 26.2885 64.9861 25.6887 64.9861 25.0992C64.9861 23.8475 64.9861 22.5958 64.9861 21.3441C64.9861 19.0507 64.708 16.739 64.708 14.506C64.708 13.4491 64.6607 11.3681 63.9044 10.6118C63.5003 10.2077 63.0441 9.96892 62.5909 9.56101C62.3279 9.32433 62.0351 9.3945 61.8182 9.22104C61.6101 9.05451 61.0894 8.76445 60.8756 8.70336C60.4101 8.57037 59.859 8.13932 59.3535 8.13932C58.6762 8.13932 58.0836 8.00024 57.4064 8.00024C56.8142 8.00024 56.2306 8.2784 55.5983 8.2784C54.9149 8.2784 54.3806 8.69564 53.7208 8.69564" stroke="white" stroke-width="2" stroke-linecap="round"/>
<path d="M48.9917 9.11276C46.5089 9.11276 44.026 9.11276 41.5432 9.11276C40.3979 9.11276 39.3977 9.24315 38.4217 8.72643C37.8057 8.40031 37.9767 8.07655 37.255 8.40964C36.8128 8.61374 36.2757 8.80603 35.8487 9.04322C34.9745 9.52893 33.9667 9.18119 33.1367 8.97369" stroke="white" stroke-width="2" stroke-linecap="round"/>
<path d="M28.4088 8.83456C26.4559 9.72226 23.8232 9.39087 21.7021 9.39087C21.2307 9.39087 20.1159 9.43228 19.755 9.14362C19.5157 8.95216 18.5056 8.81149 18.3952 8.61821C18.2282 8.32601 17.9256 8.16486 17.5916 8.13917C17.4463 8.12799 17.1396 7.71884 17.0739 7.74511C17.0056 7.77244 16.7252 8.20206 16.6181 8.30915C16.4343 8.4929 16.1865 8.36177 15.9613 8.48686C15.1368 8.94492 13.7602 8.69548 12.832 8.69548" stroke="white" stroke-width="2" stroke-linecap="round"/>
<path d="M3.51562 9.52988C3.92073 9.52988 4.29276 9.29141 4.62825 9.08173C5.03276 8.82891 5.337 8.6954 5.87996 8.6954C6.27318 8.6954 6.8118 8.57643 7.10076 8.86539C7.43185 9.19648 7.78331 9.11264 8.24429 9.11264" stroke="white" stroke-width="2" stroke-linecap="round"/>
<path d="M14.3628 13.9803C12.5128 13.9803 10.1993 12.5454 9.38684 10.9206C8.98961 10.1261 8.52147 9.27968 8.52147 8.34761C8.52147 7.94329 8.38239 7.43097 8.38239 6.95682C8.38239 6.65689 8.36576 6.35207 8.38239 6.05281C8.39603 5.80724 8.66055 5.68138 8.66055 5.35742" stroke="white" stroke-width="2" stroke-linecap="round"/>
<path d="M8.9375 4.80127V5.07943" stroke="white" stroke-width="2" stroke-linecap="round"/>
<path d="M9.07422 4.66206C9.1513 3.89128 10.0075 3.39952 10.0478 2.71496C10.0663 2.39946 11.047 1.84833 11.2995 1.5328C11.4985 1.28405 12.9026 1.32418 13.2466 1.32418C13.8802 1.32418 14.718 1.22991 15.2632 1.5328C15.8356 1.85079 16.2805 2.02678 16.7931 2.43681C17.2055 2.76672 17.9645 2.90512 18.3616 3.30218C18.7156 3.65621 19.3541 4.23785 19.4974 4.73933C19.6718 5.34972 19.5051 6.24996 19.5051 6.88732" stroke="white" stroke-width="2" stroke-linecap="round"/>
<path d="M14.3631 14.1196C14.8546 13.5667 15.0585 12.9978 15.0585 12.242C15.0585 11.6003 14.6699 11.2442 14.085 10.9517C13.8473 10.8329 13.3841 10.521 13.2505 10.2872C13.1292 10.0748 12.8918 9.46488 12.756 9.3291C12.6349 9.20804 12.4399 9.31614 12.416 9.11276C12.4025 8.99823 12.316 8.67482 12.246 8.58735C12.0829 8.38346 11.8751 8.12345 11.8597 7.86105C11.8202 7.18904 11.674 6.6684 11.8674 5.99122C11.9794 5.59943 12.8147 4.84975 13.2505 4.80132C14.1037 4.70652 14.3879 4.54422 14.7804 5.42718C14.9951 5.91024 15.3696 6.39702 15.6148 6.8875" stroke="white" stroke-width="2" stroke-linecap="round"/>
<path d="M34.6679 13.9804C34.0205 13.9804 33.3068 13.1459 32.6512 13.1459C32.1935 13.1459 32.0461 12.9829 31.67 12.8755C31.4478 12.812 30.871 12.6715 30.7119 12.5123C29.6186 11.419 28.6875 10.1029 28.6875 8.41724" stroke="white" stroke-width="2" stroke-linecap="round"/>
<path d="M28.5469 7.44385V7.722" stroke="white" stroke-width="2" stroke-linecap="round"/>
<path d="M28.6875 7.7219C28.7642 6.87812 28.7543 5.6606 29.1356 4.94033C29.3135 4.60435 29.5008 4.18741 29.522 3.8277C29.5402 3.51757 30.0371 3.20423 30.0783 2.85416C30.1551 2.2013 31.3866 1.94658 31.7781 1.63336C32.2209 1.27912 33.1935 1.04614 33.7639 1.04614C34.4546 1.04614 35.4551 0.813281 35.9196 1.39383C36.3208 1.89542 37.0501 2.30032 37.5267 2.77689C37.7936 3.04376 38.0605 3.2524 38.3457 3.61909C38.5974 3.94262 38.624 4.29445 38.9098 4.5231C39.062 4.64485 39.1184 5.35967 39.1184 5.56619C39.1184 5.91213 39.2575 6.33661 39.2575 6.74835" stroke="white" stroke-width="2" stroke-linecap="round"/>
<path d="M34.5268 14.1195C34.9618 14.0651 35.3613 13.134 35.3613 12.7982C35.3613 12.0636 35.4442 11.523 34.7355 11.1293C33.6271 10.5135 32.3016 9.71092 32.3016 8.27817C32.3016 7.55494 32.0234 6.98055 32.0234 6.26153C32.0234 5.95723 32.4353 4.91201 32.7961 4.80893C33.33 4.65638 34.4424 4.6956 34.7741 5.11027C35.1188 5.54112 35.2584 6.2644 35.5004 6.7483" stroke="white" stroke-width="2" stroke-linecap="round"/>
<path d="M55.5289 13.9804C54.1076 13.9804 53.2932 13.7274 52.1215 13.0764C50.9093 12.403 50.5262 11.1876 49.6258 10.2871C49.3679 10.0293 49.1313 8.72012 49.1313 8.34777C49.1313 7.81847 48.9922 7.14358 48.9922 6.53975C48.9922 5.8545 49.5217 5.55563 49.6799 5.00216C49.843 4.43113 50.3395 3.83398 50.7229 3.34094C51.3191 2.57447 52.3384 2.22771 52.9946 1.57156C53.5142 1.05196 56.2771 1.15414 56.9197 1.49429C57.1166 1.59858 57.3064 1.99851 57.476 2.0197C57.7195 2.05014 57.9623 2.30746 58.1405 2.46784C58.3209 2.63022 58.5212 2.99211 58.7277 3.10142C59.053 3.27365 58.9167 3.39864 59.1758 3.65773C59.5738 4.05566 59.5916 4.72842 59.8094 5.2185C60.0492 5.75805 60.1185 6.2639 60.1185 6.88745" stroke="white" stroke-width="2" stroke-linecap="round"/>
<path d="M55.6671 14.2583C55.7431 13.6506 56.2234 13.3522 56.2234 12.6589C56.2234 12.4639 56.3309 11.7851 56.1925 11.6467C56.1284 11.5825 55.9016 11.5054 55.8062 11.4458C55.6323 11.3371 55.7365 11.0855 55.5281 11.0595C54.4149 10.9203 53.3655 9.68453 53.3028 8.55607C53.2924 8.36853 53.0467 7.81685 52.9551 7.65206C52.7933 7.36081 52.8856 6.86709 52.8856 6.53943C52.8856 6.19117 53.5718 5.22777 53.8591 5.0482C54.4196 4.69791 55.1375 4.5966 55.5281 5.28C55.6424 5.48005 55.7797 5.82726 55.8062 6.05266C55.849 6.41642 56.2234 6.53197 56.2234 6.88713" stroke="white" stroke-width="2" stroke-linecap="round"/>
<path d="M2.54297 33.7296C3.73029 33.7296 4.9176 33.7296 6.10492 33.7296C7.4108 33.7296 8.60425 33.3124 9.91413 33.3124C10.6583 33.3124 11.3752 33.0846 12.1471 33.181C13.1644 33.3082 14.1019 33.4515 15.145 33.4515C20.4896 33.4515 25.8193 33.4515 31.139 33.4515C34.1906 33.4515 37.1709 33.1733 40.2178 33.1733C43.2002 33.1733 46.1827 33.1733 49.1652 33.1733C54.208 33.1733 59.2509 33.1733 64.2938 33.1733" stroke="white" stroke-width="2" stroke-linecap="round"/>
<path d="M26.8791 36.094C26.8791 36.8405 26.8065 37.6004 26.7323 38.3424C26.6725 38.9402 26.3658 39.4797 26.2687 40.0732C26.1613 40.7296 26.1392 41.3647 25.9828 42.0126C25.6406 43.4303 25.7665 44.9396 25.7665 46.3858C25.7665 48.727 25.7136 51.0435 25.6274 53.3706C25.6141 53.7302 25.0009 54.7305 25.7046 54.7305C27.2219 54.7305 28.8698 54.9035 30.356 54.5605C32.186 54.1382 34.0997 53.8108 35.981 53.6179C37.3411 53.4784 38.7331 53.0616 40.0915 53.0616" stroke="white" stroke-width="2" stroke-linecap="round"/>
<path d="M40.6484 41.2397C41.2633 49.8482 41.2048 58.4617 41.2048 67.1083" stroke="white" stroke-width="2" stroke-linecap="round"/>
</svg>
